2,506.4881372451782,582.0834732055664
3,506.01606845855713,582.3695468902588
4,505.38740158081055,582.470269203186
5,504.8022508621216,582.7287483215332
6,504.198260307312,582.7486610412598
7,504.19830322265625,582.7486610412598
8,503.7148189544678,582.8936290740967
9,502.9919099807739,583.0142211914062
10,502.46422290802,583.054690361023
11,501.68500900268555,583.2592248916626
12,501.23671531677246,583.5003232955933
13,501.2244415283203,583.5120820999146
14,500.7140064239502,583.6429309844971
15,500.31163215637207,584.2313432693481
16,500.0634527206421,584.5235109329224
17,499.80600357055664,584.8185539245605
18,499.5122480392456,584.9688863754272
19,499.51250553131104,584.9685001373291
20,499.1905975341797,585.0836849212646
21,499.06476974487305,585.3691577911377
22,498.8769721984863,585.3350830078125
23,498.49292278289795,585.4400539398193
24,498.29036235809326,585.4473924636841
25,498.2778739929199,585.4434871673584
26,498.01634788513184,585.0595235824585
27,497.8137016296387,584.7833204269409
28,497.5204610824585,584.7395467758179
29,497.10675716400146,585.4420280456543
30,496.7883253097534,586.0806941986084
31,496.78858280181885,586.07666015625
32,496.3511037826538,587.0095109939575
33,495.8008861541748,587.516770362854
34,495.20530700683594,587.5028657913208
35,494.6375799179077,586.9402885437012
36,493.6520290374756,585.2155637741089
37,493.65211486816406,585.2141046524048
38,492.54640102386475,583.1609916687012
39,491.1280059814453,579.618330001831
40,489.1592216491699,575.378851890564
41,486.74720764160156,572.0712375640869
42,483.44671726226807,571.0604095458984
43,483.4586477279663,571.0743570327759
44,479.24376010894775,571.2851572036743
45,474.16009426116943,572.2674465179443
46,468.90146255493164,573.3300304412842
47,464.36724185943604,573.8814496994019
48,459.7203254699707,574.8397064208984
49,459.7236728668213,574.8333549499512
50,455.23592948913574,575.6954383850098
51,450.5724048614502,577.153787612915
52,445.5848693847656,579.056568145752
53,440.09440898895264,580.9296941757202
54,434.5327949523926,581.7877864837646
55,434.5327949523926,581.7877864837646
56,429.2022371292114,581.4493989944458
57,423.6724662780762,580.7615518569946
58,417.7178764343262,580.2060556411743
59,412.1197843551636,578.8569259643555
60,407.57389068603516,577.7074384689331
61,407.5738477706909,577.7074384689331
62,403.7815475463867,578.1711387634277
63,399.9195098876953,577.7116870880127
64,396.2669849395752,578.2419490814209
65,392.70355224609375,578.1149196624756
66,388.9844226837158,577.9923105239868
67,388.9869976043701,578.0008506774902
68,385.2227210998535,577.3927402496338
69,381.3260078430176,576.0017681121826
70,377.4644422531128,573.694338798523
71,374.1669988632202,571.092209815979
72,371.8819284439087,570.1940774917603
73,371.88197135925293,570.194206237793
74,370.728235244751,570.4853439331055
75,370.56013584136963,571.7881679534912
76,370.7541561126709,573.3740186691284
77,371.6564083099365,575.361213684082
78,372.556471824646,577.2757530212402
79,372.556471824646,577.2759246826172
80,373.4976053237915,578.4793138504028
81,374.22184467315674,579.2745780944824
82,374.7628355026245,579.9046611785889
83,375.121865272522,580.2188873291016
84,375.3428792953491,580.2251529693604
85,375.34446716308594,580.2194881439209
86,375.47364234924316,579.8209762573242
87,375.596079826355,579.1004705429077
88,375.68787574768066,577.8765678405762
89,376.0248899459839,576.1928272247314
90,376.42507553100586,574.4015407562256
91,376.4246463775635,574.4013261795044
92,377.2354030609131,572.7819156646729
93,378.44947814941406,571.7342662811279
94,380.12545108795166,571.3577699661255
95,382.46832847595215,571.5086603164673
96,385.3499221801758,572.1729040145874
97,385.3499221801758,572.1729898452759
98,388.74040603637695,573.3817005157471
99,392.4639558792114,575.0208950042725
100,396.0731792449951,576.0074329376221
101,399.6703863143921,576.8792152404785
102,403.2512855529785,577.5405406951904
103,403.2521867752075,577.5456047058105
104,406.52366638183594,578.0950498580933
105,409.89874362945557,577.8017663955688
106,413.2217216491699,576.7848443984985
107,416.4407157897949,574.7792816162109
108,419.7831344604492,572.7329063415527
109,419.7833061218262,572.7322196960449
110,423.5129499435425,571.2313413619995
111,427.64917373657227,570.7862663269043
112,432.64679431915283,571.3577270507812
113,437.88323879241943,571.9603443145752
114,443.09535026550293,572.0178079605103
115,443.09560775756836,572.0178937911987
116,447.9881286621094,572.0407676696777
117,452.98519134521484,573.2209396362305
118,457.9539728164673,574.9090576171875
119,462.85516262054443,576.4822912216187
120,467.84239768981934,578.3532285690308
121,467.8423547744751,578.3528852462769
122,473.4027671813965,580.6518602371216
123,477.8733444213867,582.3331117630005
124,482.47700214385986,584.1646528244019
125,486.1445474624634,585.7203769683838
126,490.64207553863525,587.559986114502
127,490.6490707397461,587.5488710403442
128,495.01360416412354,588.4786319732666
129,499.17420387268066,588.4797477722168
130,502.845139503479,587.3855781555176
131,506.6201877593994,584.5501613616943
132,510.48548698425293,581.8610429763794
133,510.48548698425293,581.8610429763794
134,514.632396697998,578.6643648147583
135,519.1326713562012,576.2623929977417
136,523.6480093002319,574.6691179275513
137,527.6275062561035,574.7102737426758
138,531.827802658081,574.5081853866577
139,531.8281888961792,574.5050096511841
140,535.3560876846313,575.1383113861084
141,538.403377532959,575.8543539047241
142,538.998613357544,577.7065372467041
143,541.4717817306519,582.1687459945679
144,544.2820930480957,586.5559816360474
145,544.2820930480957,586.5559816360474
146,546.5783214569092,589.5051670074463
147,548.8867807388306,590.7279109954834
148,551.270341873169,589.6673011779785
149,552.4395704269409,587.9570817947388
150,554.1881561279297,584.8537445068359
151,554.1881561279297,584.8537445068359
152,555.5029964447021,582.010087966919
153,556.335940361023,576.6762685775757
154,556.7263841629028,570.8568620681763
155,556.409969329834,565.4055833816528
156,555.645432472229,560.6081628799438
157,555.6455183029175,560.6081628799438
158,553.7713193893433,559.2355155944824
159,551.0143518447876,560.5464935302734
160,547.8129959106445,563.2265138626099
161,544.2505931854248,565.2693271636963
162,540.574893951416,566.6049814224243
163,540.6130886077881,566.6194868087769
164,537.207498550415,567.1287202835083
165,533.5678052902222,567.6040077209473
166,529.9754047393799,567.8049373626709
167,526.594705581665,568.8666200637817
168,523.1635808944702,570.6901359558105
169,523.1659412384033,570.6798791885376
170,519.4873666763306,572.8365898132324
171,515.7163524627686,574.4208526611328
172,511.377010345459,575.3799247741699
173,506.9682741165161,575.7777070999146
174,502.5939989089966,575.7665920257568
175,502.60438442230225,575.7693386077881
176,498.52982997894287,574.9808979034424
177,493.85098457336426,574.3682384490967
178,489.22295093536377,574.5664215087891
179,484.6817350387573,574.8586320877075
180,480.2740287780762,575.266284942627
181,480.2743721008301,575.2662420272827
182,475.73225498199463,576.0757970809937
183,471.2417221069336,577.4911451339722
184,467.1693992614746,578.0306339263916
185,462.3851537704468,578.8933181762695
186,458.70469093322754,580.0074434280396
187,458.70469093322754,580.0074434280396
188,455.18919467926025,581.1011838912964
189,451.56327724456787,582.1454000473022
190,447.88865089416504,581.8510866165161
191,444.3233299255371,580.9255313873291
192,440.37413120269775,579.0712451934814
193,440.37782192230225,579.0784978866577
194,436.3120222091675,576.1932563781738
195,432.5625944137573,572.8210973739624
196,429.0522050857544,569.1645383834839
197,426.76164150238037,567.1694469451904
198,425.3622579574585,566.9244861602783
199,425.35380363464355,566.937747001648
200,424.6683597564697,567.5566291809082
201,424.9759769439697,569.4215154647827
202,425.7704257965088,571.7005777359009
203,426.76340103149414,574.077959060669
204,428.21226596832275,575.7442760467529
205,428.21226596832275,575.7444047927856
206,429.5700216293335,577.3610258102417
207,431.071457862854,579.0814161300659
208,432.71910667419434,580.3539419174194
209,434.5880699157715,581.8567514419556
210,436.11323833465576,582.8066396713257
211,436.1374855041504,582.7839803695679
212,437.5474691390991,583.7555408477783
213,438.5747766494751,584.2020750045776
214,439.6884298324585,584.559817314148
215,440.7881784439087,584.9644660949707
216,441.6130542755127,584.9124097824097
217,441.6132688522339,584.9131393432617
218,442.59650230407715,584.607367515564
219,443.36979389190674,583.8734292984009
220,443.89760971069336,582.6328325271606
221,444.3855142593384,581.3392782211304
222,444.56013679504395,580.2332210540771
223,444.56708908081055,580.2767372131348
224,444.79162216186523,579.9465465545654
225,444.87796783447266,579.8459959030151
226,445.00443935394287,580.2908992767334
227,445.36080837249756,581.4156675338745
228,445.6314754486084,582.4037504196167
229,445.6350374221802,582.408127784729
230,446.13714694976807,583.5435819625854
231,446.34181022644043,584.6586513519287
232,446.35429859161377,586.3134670257568
233,446.3988447189331,587.2890615463257
234,446.3677740097046,588.1945753097534
235,446.36785984039307,588.2307529449463
236,445.9759998321533,589.1633892059326
237,445.66215991973877,589.7976779937744
238,445.26931285858154,589.5522022247314
239,444.5133590698242,588.0527400970459
240,443.5045909881592,585.1597738265991
241,443.5031318664551,585.1677131652832
242,442.374587059021,582.2547054290771
243,441.23780250549316,579.9762010574341
244,439.83120918273926,579.2959070205688
245,437.82384395599365,579.7407245635986
246,435.4385232925415,580.4005908966064
247,435.45899391174316,580.4666805267334
248,432.3983573913574,581.7905759811401
249,429.6321630477905,582.4513006210327
250,426.30691051483154,582.9310512542725
251,423.1258535385132,582.7930355072021
252,420.23048400878906,582.7444982528687
253,420.23078441619873,582.7390050888062
254,417.6188278198242,583.1688022613525
255,415.1996040344238,583.6459350585938
256,412.6252841949463,584.2724561691284
257,409.77330207824707,585.2376222610474
258,406.81806564331055,585.2774477005005
259,406.81785106658936,585.2774047851562
260,404.00959968566895,584.5994281768799
261,401.51325702667236,583.9542388916016
262,398.0517911911011,581.6865921020508
263,394.74846839904785,579.4746494293213
264,391.7822027206421,578.1772327423096
265,391.8575620651245,578.2855081558228
266,389.25204277038574,578.4158849716187
267,387.0110893249512,578.5117149353027
268,384.24283504486084,579.1291379928589
269,381.6232395172119,579.954571723938
270,379.1744041442871,580.8089733123779
271,379.1744899749756,580.8088874816895
272,376.75801277160645,581.736888885498
273,374.938702583313,583.2636022567749
274,373.65965366363525,584.7506618499756
275,372.65886783599854,586.1853647232056
276,371.6639184951782,587.1410036087036
277,371.6639184951782,587.1410036087036
278,370.5290651321411,587.5914859771729
279,369.64436531066895,587.6216554641724
280,368.6304473876953,587.1582126617432
281,367.641077041626,586.145281791687
282,366.8519926071167,584.7285604476929
283,366.8543529510498,584.7413921356201
284,365.89253425598145,582.1805906295776
285,365.31562328338623,579.0519332885742
286,364.24243927001953,577.5236320495605
287,362.46299743652344,577.0094203948975
288,359.8003149032593,578.1517839431763
289,359.80005741119385,578.1532001495361
290,356.017541885376,579.9258613586426
291,351.45705699920654,582.3569297790527
292,347.5083088874817,584.2835283279419
293,343.4406638145447,584.9591016769409
294,339.4898986816406,585.6896495819092
295,339.51470375061035,585.6863880157471
296,335.90558767318726,585.8810520172119
297,332.13616132736206,586.4211845397949
298,328.7024188041687,586.9396877288818
299,324.6734833717346,589.143476486206
300,321.17729902267456,590.0842237472534
301,321.1824703216553,590.105767250061
302,316.9875168800354,590.7103157043457
303,312.6153016090393,591.9397115707397
304,307.3873543739319,592.5981616973877
305,303.2932734489441,592.6982831954956
306,298.6838436126709,593.250904083252
307,298.68412256240845,593.2506036758423
308,294.67962741851807,593.9154481887817
309,290.5614924430847,594.0199041366577
310,286.5728974342346,593.1246900558472
311,282.5721788406372,591.8896293640137
312,278.6187744140625,589.7637319564819
313,278.6376142501831,589.7796106338501
314,274.73785400390625,587.0950841903687
315,271.18319749832153,585.3003644943237
316,267.742760181427,583.7191915512085
317,264.2034888267517,582.2894239425659
318,260.68453788757324,581.1534976959229
319,260.6831431388855,581.1523389816284
320,257.1138525009155,579.7747993469238
321,253.9791226387024,578.3703088760376
322,250.63071727752686,576.9862031936646
323,247.74094820022583,578.2598876953125
324,245.35927534103394,579.678840637207
325,245.35921096801758,579.6784543991089
326,243.99654150009155,581.7141008377075
327,242.67612218856812,583.960075378418
328,241.72539710998535,584.9069166183472
329,240.79891920089722,585.5303478240967
330,239.69245433807373,586.5588569641113
331,239.692862033844,586.5582990646362
332,238.30225467681885,587.5276279449463
333,236.82401418685913,588.2976579666138
334,235.5950689315796,587.3716306686401
335,234.67047929763794,585.7294321060181
336,233.65081071853638,582.550048828125
337,233.65583181381226,582.5603485107422
338,232.50627994537354,578.450517654419
339,231.68548107147217,574.5076274871826
340,231.54343128204346,571.699333190918
341,232.85908699035645,571.1631488800049
342,234.6667242050171,571.077618598938
343,234.66668128967285,571.077618598938
344,236.70331478118896,571.685471534729
345,239.39565181732178,572.3264980316162
346,241.62630558013916,573.6411666870117
347,243.88210773468018,574.8593616485596
348,246.5410566329956,576.4975690841675
349,246.54539108276367,576.4923763275146
350,249.37308311462402,578.1401968002319
351,251.72610998153687,579.5906496047974
352,254.50348377227783,580.265793800354
353,257.64314889907837,580.3390502929688
354,260.3785729408264,579.6166563034058
355,260.3805470466614,579.6215915679932
356,263.33078384399414,578.4862232208252
357,266.5487265586853,577.5580501556396
358,269.8838710784912,577.166919708252
359,273.4432911872864,577.6547384262085
360,277.3673629760742,579.1204261779785
361,277.3674702644348,579.1205978393555
362,281.3847327232361,580.7929229736328
363,285.3430509567261,582.3125553131104
364,289.27411794662476,583.6516857147217
365,292.8984475135803,584.666805267334
366,296.35055780410767,584.6873188018799
367,296.3504934310913,584.6873617172241
368,299.8925542831421,584.2185544967651
369,303.2291793823242,582.43821144104
370,306.4944791793823,581.0030364990234
371,309.994740486145,578.256368637085
372,313.89246225357056,576.3395547866821
373,313.88952255249023,576.3295125961304
374,318.1396436691284,575.2407073974609
375,322.9546809196472,575.2057313919067
376,327.7030062675476,575.3422451019287
377,332.65790462493896,575.9807825088501
378,336.98864221572876,576.9234609603882
379,336.98885679244995,576.9256496429443
380,341.01860761642456,578.2512617111206
381,344.8359274864197,579.979076385498
382,348.2744765281677,581.0029935836792
383,351.6619348526001,581.670970916748
384,354.9857711791992,581.3356304168701
385,354.98098611831665,581.3397073745728
386,358.6367726325989,580.7312536239624
387,362.2099256515503,580.294246673584
388,365.79679012298584,579.7141599655151
389,369.3824529647827,579.8676252365112
390,372.8823709487915,580.068769454956
391,372.87301540374756,580.0619459152222
392,376.4211702346802,579.6163988113403
393,379.67363834381104,579.7099113464355
394,382.99086570739746,579.84290599823
395,386.31208419799805,579.8283576965332
396,389.5773410797119,579.923586845398
397,389.57725524902344,579.9263334274292
398,392.7371120452881,579.151496887207
399,395.9152936935425,577.3692655563354
400,399.21398162841797,576.0790586471558
401,401.95820331573486,574.8504781723022
402,404.58659648895264,573.9165115356445
403,404.60273265838623,573.9097309112549
404,406.72343730926514,573.869948387146
405,408.7951326370239,574.387035369873
406,410.85545539855957,575.0800323486328
407,412.8582715988159,576.0606050491333
408,414.5138168334961,577.2754526138306
409,414.5162630081177,577.2829627990723
410,416.1217260360718,578.2626342773438
411,417.9765272140503,579.3490791320801
412,419.60773944854736,580.8553647994995
413,421.0014581680298,581.3118124008179
414,422.2454023361206,581.759934425354
415,422.2455310821533,581.7602348327637
416,423.5010623931885,581.953182220459
417,424.56154346466064,581.4503860473633
418,425.5500555038452,580.0887250900269
419,426.15211486816406,577.7719831466675
420,426.6638374328613,574.552903175354
421,426.67439460754395,574.5480537414551
422,427.0378875732422,571.2871742248535
423,427.1824264526367,569.3734931945801
424,427.09603786468506,569.2068529129028
425,426.53148651123047,570.2344179153442
426,425.4732370376587,571.619381904602
427,425.4732370376587,571.619381904602
428,423.8633966445923,573.1424474716187
429,422.04005241394043,574.419436454773
430,420.13607025146484,574.8101377487183
431,418.11784744262695,574.7776079177856
432,416.16416931152344,574.4152307510376
433,416.1644697189331,574.416389465332
434,414.25224781036377,574.098858833313
435,412.6276445388794,574.2089796066284
436,410.9993076324463,574.4840240478516
437,409.44100856781006,574.8845100402832
438,407.650408744812,575.0521802902222
439,407.6504945755005,575.0503349304199
440,405.779128074646,575.2310085296631
441,403.86643409729004,574.6563291549683
442,402.034592628479,573.9960336685181
443,400.2393579483032,572.9729747772217
444,398.33280086517334,572.0176792144775
445,398.3328437805176,572.0178079605103
446,396.63777351379395,571.4515399932861
447,394.94141578674316,571.3248109817505
448,393.2732963562012,571.6026449203491
449,391.865029335022,572.0396518707275
450,390.2318000793457,572.5781965255737
451,390.231671333313,572.5776386260986
452,389.04197216033936,572.9569244384766
453,387.55894660949707,573.5127639770508
454,386.28337383270264,574.1958045959473
455,385.25065898895264,575.2217388153076
456,384.6428918838501,576.2832069396973
457,384.64284896850586,576.2830781936646
458,384.27570819854736,577.4233818054199
459,384.02873039245605,578.5035610198975
460,383.99182319641113,579.4071006774902
461,384.0704011917114,579.855523109436
462,384.087610244751,579.8027801513672
463,384.0895414352417,579.7826099395752
464,384.0077877044678,579.2432069778442
465,383.9871025085449,577.4642372131348
466,384.1006565093994,575.7832431793213
467,384.4759511947632,573.8466024398804
468,385.494589805603,572.7999830245972
469,385.44270515441895,572.7959489822388
470,386.6813278198242,572.4050331115723
471,388.5065174102783,573.1467390060425
472,390.3866386413574,574.3045520782471
473,392.6307678222656,575.9903526306152
474,394.5516586303711,577.571268081665
475,394.5516586303711,577.571268081665
476,396.17544651031494,578.9797496795654
477,397.5817394256592,579.4985961914062
478,398.77525806427,579.4618606567383
479,400.10563373565674,578.903489112854
480,401.44047260284424,578.6334228515625
481,401.43948554992676,578.6341524124146
482,402.5122833251953,578.6338090896606
483,403.53328227996826,578.8344812393188
484,404.19816970825195,578.7778759002686
485,405.3336238861084,579.4979095458984
486,406.4659023284912,579.6944618225098
487,406.4646577835083,579.6930027008057
488,407.40574836730957,579.9256038665771
489,408.2553005218506,579.8283576965332
490,409.3026065826416,579.4853353500366
491,410.2069616317749,578.7574911117554
492,411.195387840271,577.4946212768555
493,411.1992073059082,577.49183177948
494,412.38208293914795,575.9489822387695
495,413.47668170928955,574.4162178039551
496,414.4931745529175,572.8357744216919
497,415.55241107940674,571.9494438171387
498,416.2527894973755,571.8026733398438
499,416.28008365631104,571.7702722549438
500,416.40857219696045,571.5041971206665
501,416.383638381958,571.1467123031616
502,417.28919506073,571.861081123352
503,418.49653244018555,572.8502368927002
504,419.4517421722412,573.774847984314
505,419.4503688812256,573.7754917144775
506,419.7474718093872,575.2698469161987
507,419.9828624725342,576.500186920166
508,420.00904083251953,577.268328666687
509,420.23473262786865,577.8736066818237
510,420.2700090408325,577.9664754867554
511,420.2807378768921,578.0220937728882
512,420.39819717407227,577.9838991165161
513,420.58899879455566,577.7689790725708
514,420.70208072662354,577.3091411590576
515,420.65916538238525,576.7893505096436
516,420.7993698120117,576.0066604614258
517,420.79782485961914,576.0068321228027
518,420.72834491729736,575.0817060470581
519,420.7237958908081,574.0540981292725
520,420.6103277206421,573.1811571121216
521,420.4423141479492,572.8411817550659
522,419.6351623535156,573.0960130691528
523,419.6346044540405,573.0952835083008
524,418.92555713653564,573.0169200897217
525,417.7132844924927,573.1691408157349
526,416.3060474395752,572.9498863220215
527,414.7538423538208,572.7112340927124
528,413.2245969772339,572.4378633499146
529,413.22502613067627,572.4327993392944
530,411.74062728881836,572.2188663482666
531,410.48595428466797,572.1633768081665
532,409.61061000823975,572.51305103302
533,408.98863792419434,573.5150814056396
534,408.56879711151123,574.7799682617188
535,408.55961322784424,574.7930145263672
536,408.14929962158203,576.1417150497437
537,407.9289722442627,576.8991279602051
538,407.7767515182495,576.9756889343262
539,407.59273052215576,576.2446689605713
540,407.2492790222168,574.6821212768555
541,407.24897861480713,574.6825504302979
542,407.1038818359375,572.5554943084717
543,406.8400812149048,569.6102142333984
544,407.09126472473145,567.0137929916382
545,408.0242443084717,566.2949180603027
546,410.03233909606934,566.030216217041
547,410.0325107574463,566.0277700424194
548,412.97375679016113,567.4114465713501
549,416.13245487213135,568.2609987258911
550,419.07455921173096,569.157543182373
551,422.0880317687988,570.0334453582764
552,424.9476957321167,571.0531568527222
553,424.94593620300293,571.0551738739014
554,427.34735012054443,572.1705436706543
555,429.83832836151123,572.0659160614014
556,432.36243724823,571.7553806304932
557,435.08228302001953,571.2785053253174
558,437.6028299331665,570.4934120178223
559,437.59986877441406,570.4813957214355
560,440.4426670074463,569.8598098754883
561,443.05835723876953,569.3707466125488
562,445.52568912506104,569.0960884094238
563,447.6858329772949,569.0702104568481
564,450.02583503723145,569.1902017593384
565,450.02570629119873,569.1898155212402
566,452.25953578948975,569.321608543396
567,454.7303867340088,568.8674354553223
568,456.7925548553467,567.4654340744019
569,458.80446910858154,565.8094596862793
570,460.8395576477051,563.5691928863525
571,460.85577964782715,563.5601806640625
572,462.94373989105225,561.1773490905762
573,464.8506832122803,558.984375
574,466.6123151779175,558.6599779129028
575,468.2564449310303,558.8160610198975
576,468.98780822753906,559.6842813491821
577,468.9382839202881,559.6730375289917
578,469.1602420806885,559.826717376709
579,470.4281759262085,560.7860898971558
580,471.7086410522461,562.8888988494873
581,473.11261653900146,564.7276067733765
582,473.7051486968994,567.607741355896
583,473.70519161224365,567.6076555252075
584,474.07859802246094,569.9346113204956
585,474.854679107666,571.8251180648804
586,475.5366039276123,573.4032011032104
587,475.9833097457886,573.5126352310181
588,476.40589714050293,572.880449295044
589,476.4057683944702,572.87757396698
590,476.74763202667236,571.2601375579834
591,476.8168544769287,569.044976234436
592,476.3942241668701,566.34521484375
593,475.29374599456787,563.8342380523682
594,473.8981819152832,563.2392597198486
595,473.8980531692505,563.2395172119141
596,472.0950937271118,564.2262697219849
597,469.67612743377686,564.6023368835449
598,467.5161552429199,564.7021579742432
599,465.34270763397217,564.4272422790527
600,463.1435966491699,564.5325994491577
601,463.142352104187,564.5224714279175
602,456.4363145828247,576.8671989440918
603,453.76255989074707,577.7646446228027
604,451.2034749984741,579.1402530670166
605,448.51130962371826,580.0001907348633
606,445.4480981826782,579.9012279510498
607,445.44230461120605,579.9044895172119
608,442.26738452911377,579.3020439147949
609,439.1824150085449,578.1146192550659
610,435.901837348938,577.0078754425049
611,432.7393627166748,576.4918184280396
612,429.74631786346436,576.9532442092896
613,429.74631786346436,576.953501701355
614,426.8250274658203,578.1866312026978
615,423.8476037979126,579.9714374542236
616,421.25633239746094,581.4703416824341
617,418.5940361022949,583.0256366729736
618,416.40925884246826,584.3341684341431
619,416.409215927124,584.3341684341431
620,414.28370475769043,584.966869354248
621,412.14755058288574,585.0651454925537
622,409.798321723938,584.574408531189
623,407.81859397888184,583.7559270858765
624,405.5373001098633,580.5126428604126
625,405.5347681045532,580.5127716064453
626,403.2327890396118,577.3106002807617
627,401.35193824768066,573.82493019104
628,400.750994682312,572.408938407898
629,401.41807079315186,571.3455820083618
630,403.10593128204346,571.3481569290161
631,403.1059741973877,571.3483715057373
632,406.05910778045654,572.8502798080444
633,409.522762298584,574.6359443664551
634,412.83273696899414,575.7056951522827
635,416.37896060943604,576.9701528549194
636,419.68554496765137,578.0426502227783
637,419.6854591369629,578.0427360534668
638,422.6759719848633,578.777232170105
639,425.8257865905762,579.8105907440186
640,429.13902282714844,581.3456296920776
641,432.7015542984009,583.0259370803833
642,436.1402750015259,584.637279510498
643,436.14104747772217,584.6380519866943
644,439.6685600280762,585.4528856277466
645,443.2462406158447,585.9901857376099
646,446.5608072280884,585.7006788253784
647,449.7763252258301,585.6019735336304
648,452.831768989563,585.8838415145874
649,452.8318119049072,585.8840131759644
650,456.0006809234619,586.2108564376831
651,458.79931926727295,586.1954927444458
652,461.77695751190186,586.0242176055908
653,464.5272731781006,585.0713682174683
654,467.20948219299316,584.3609046936035
655,467.20948219299316,584.3610763549805
656,470.05030632019043,583.7189340591431
657,472.8192472457886,583.0726718902588
658,475.61028957366943,582.5407791137695
659,478.1311368942261,582.9769277572632
660,480.54486751556396,584.5337677001953
661,480.5424642562866,584.5026111602783
662,482.9196310043335,586.9981813430786
663,485.2218246459961,587.6931953430176
664,488.07127475738525,590.4982280731201
665,491.7494201660156,591.6709756851196
666,494.47192668914795,593.528265953064
667,494.4707250595093,593.5230302810669
668,496.62078380584717,593.8274717330933
669,497.78451919555664,593.5946130752563
670,499.55670833587646,592.9734563827515
671,500.8769130706787,592.0898294448853
672,502.24024772644043,590.8195781707764
673,502.2342824935913,590.822925567627
674,503.3053207397461,588.8032865524292
675,504.6334648132324,586.255145072937
676,505.2432918548584,582.4700975418091
677,505.96641540527344,579.1113710403442
678,506.2698698043823,576.2889575958252
679,506.25746726989746,576.2540245056152
680,505.8392143249512,573.0934381484985
681,504.7185230255127,571.7210483551025
682,503.0374002456665,572.5979804992676
683,500.9865617752075,573.6228847503662
684,498.66153717041016,574.0302801132202
685,498.66196632385254,574.0308380126953
686,497.0474052429199,573.8720512390137
687,495.1773262023926,573.5427188873291
688,493.3663845062256,573.5488128662109
689,491.13633155822754,574.0413093566895
690,489.02832984924316,574.65087890625
691,489.02832984924316,574.6507501602173
692,486.5062379837036,575.742130279541
693,484.08143520355225,576.253981590271
694,481.3732624053955,576.4192056655884
695,478.52625846862793,575.5190563201904
696,476.22990131378174,575.2502346038818
697,476.23307704925537,575.2346134185791
698,473.98860454559326,575.5036067962646
699,471.7206573486328,575.5370378494263
700,469.6427822113037,576.0145139694214
701,467.555251121521,576.2964677810669
702,458.39037895202637,584.6029901504517
703,458.3905076980591,584.6030330657959
704,456.04913234710693,583.4395551681519
705,453.2892894744873,580.4916572570801
706,450.62909603118896,577.5185680389404
707,447.99516677856445,573.3566379547119
708,445.8330488204956,570.8599948883057
709,445.833477973938,570.8110284805298
710,444.6089744567871,570.706615447998
711,443.8080883026123,571.221170425415
712,442.6589870452881,571.2636566162109
713,441.70905590057373,571.5731620788574
714,440.0685739517212,571.7035388946533
715,440.0685739517212,571.7034101486206
716,438.94779682159424,571.443772315979
717,438.19119930267334,571.4421844482422
718,437.62712001800537,571.8777322769165
719,437.29783058166504,572.541332244873
720,437.44425773620605,573.6800479888916
721,437.4441719055176,573.6797904968262
722,437.7005910873413,575.3720283508301
723,438.255615234375,576.8825626373291
724,438.64155292510986,578.1607103347778
725,439.002685546875,579.612193107605
726,439.36034202575684,581.1015701293945
727,439.3604278564453,581.101484298706
728,439.7008752822876,582.4620294570923
729,440.02952098846436,583.1491899490356
730,440.1727294921875,583.9312791824341
731,440.19208431243896,584.1446542739868
732,440.2405786514282,583.9486598968506
733,440.24723052978516,583.9536809921265
734,440.2868843078613,583.9629936218262
735,440.278902053833,584.4482374191284
736,439.99261379241943,585.3942203521729
737,439.6744394302368,586.4658164978027
738,439.3646764755249,587.451581954956
739,439.3646764755249,587.451581954956
740,439.36326026916504,588.8087797164917
741,439.9933862686157,589.3374538421631
742,440.80942153930664,589.7274255752563
743,440.79521656036377,590.4122257232666
744,440.78822135925293,591.0412788391113
745,440.7923412322998,591.0261297225952
746,440.6186628341675,590.8965253829956
747,440.4025411605835,589.2493915557861
748,439.9340343475342,588.0926942825317
749,439.41540241241455,586.5133666992188
750,438.760085105896,584.5125246047974
751,438.7487983703613,584.514970779419
752,438.0609941482544,583.7253284454346
753,437.51030445098877,583.4117889404297
754,436.29717350006104,583.6508703231812
755,435.10258197784424,583.6811685562134
756,433.833703994751,583.4064245223999
757,433.8324165344238,583.4055662155151
758,432.50749111175537,583.184380531311
759,430.9510803222656,582.329592704773
760,429.68949794769287,581.3366603851318
761,428.0394458770752,581.2531042098999
762,426.39535903930664,580.9918785095215
763,426.3967752456665,580.9991312026978
764,424.78753566741943,581.1170196533203
765,423.1377410888672,581.6844892501831
766,421.1044120788574,581.7410087585449
767,419.2655324935913,581.532096862793
768,417.54149436950684,580.6835317611694
769,417.5383186340332,580.6791973114014
770,415.8193874359131,579.5979452133179
771,414.13496017456055,579.2288732528687
772,412.5243902206421,579.5063638687134
773,411.24980449676514,580.4219198226929
774,409.7965621948242,581.0961198806763
775,409.79759216308594,581.0950469970703
776,408.46052169799805,582.0648908615112
777,407.2410821914673,582.3264169692993
778,405.78723907470703,581.5540266036987
779,404.14199352264404,579.587516784668
780,402.3203229904175,576.5698385238647
781,402.3197650909424,576.5701818466187
782,400.47346115112305,572.8910493850708
783,399.0825319290161,569.2092132568359
784,398.13573360443115,566.1129140853882
785,398.2228946685791,564.6403169631958
786,399.4004487991333,564.8646783828735
787,399.40104961395264,564.8377275466919
788,401.370005607605,566.0526609420776
789,403.745756149292,567.9659557342529
790,406.4664602279663,569.6113729476929
791,409.0821075439453,571.6722536087036
792,411.6817045211792,573.6181211471558
793,411.69063091278076,573.6037445068359
794,413.95647525787354,575.3243923187256
795,416.2475109100342,576.9928121566772
796,418.20427894592285,577.968020439148
797,420.4069948196411,578.7000703811646
798,423.06156635284424,578.6155271530151
799,423.0618667602539,578.615312576294
800,425.56790828704834,578.7097263336182
801,428.4360694885254,579.3498086929321
802,411.2522506713867,578.5350179672241
803,413.9720106124878,579.0703868865967
804,416.4709281921387,579.474606513977
805,416.47204399108887,579.4753360748291
806,418.9755964279175,579.7896909713745
807,421.37160301208496,580.3197813034058
808,423.66491317749023,580.785026550293
809,425.93852519989014,580.7734823226929
810,428.21617126464844,580.3983163833618
811,428.2162570953369,580.3990030288696
812,430.5856132507324,579.8411464691162
813,432.79558181762695,578.6918306350708
814,435.25978088378906,577.5141048431396
815,437.45747566223145,576.2963819503784
816,439.7379541397095,575.4842519760132
817,439.7393274307251,575.4772996902466
818,441.84865951538086,576.0444259643555
819,443.8538360595703,577.9793500900269
820,445.3349733352661,578.5363912582397
821,447.6183271408081,579.0030527114868
822,450.3608751296997,580.4450511932373
823,450.3368854522705,580.4459953308105
824,452.66096591949463,582.1164751052856
825,453.6008548736572,583.1309938430786
826,454.79029655456543,583.1702184677124
827,455.9796953201294,583.1862688064575
828,457.1053218841553,583.1970834732056
829,457.11729526519775,583.1895303726196
830,458.0118227005005,582.8443193435669
831,458.9557456970215,581.4016771316528
832,459.57196712493896,579.309983253479
833,460.98954677581787,577.1962308883667
834,461.9631242752075,573.8059186935425
835,461.9562578201294,573.8110256195068
836,462.56574153900146,570.2252340316772
837,463.15415382385254,567.3677158355713
838,462.93434143066406,566.2974071502686
839,462.6367664337158,567.8339910507202
840,461.9070339202881,570.6116437911987
841,461.9050168991089,570.6096696853638
842,460.85612297058105,571.6741418838501
843,459.45523738861084,572.4228000640869
844,458.3042907714844,572.0021867752075
845,456.9969177246094,571.896014213562
846,455.57573318481445,571.7191171646118
847,455.58401584625244,571.7253828048706
848,453.75290393829346,572.3701000213623
849,452.33566761016846,573.1745481491089
850,450.55686950683594,573.7122344970703
851,448.94973278045654,573.8532543182373
852,447.3889446258545,573.9396858215332
853,447.38898754119873,573.9381837844849
854,445.7623243331909,573.8588333129883
855,444.1076374053955,574.6151733398438
856,442.560453414917,575.5599975585938
857,441.281361579895,576.4876556396484
858,439.7979497909546,576.5563201904297
859,439.79812145233154,576.5579080581665
860,438.20051193237305,575.4760551452637
861,436.6856861114502,573.5922431945801
862,434.81916904449463,570.5035829544067
863,433.13873291015625,566.9813919067383
864,431.3381338119507,563.5968732833862
865,431.285605430603,563.4839630126953
866,429.8733901977539,562.333574295044
867,428.8084030151367,561.9032621383667
868,428.0094909667969,561.6749954223633
869,427.47776985168457,563.0471277236938
870,426.2646818161011,565.1804065704346
871,426.26476764678955,565.1805353164673
872,425.1075553894043,565.8136653900146
873,424.0071201324463,566.8329477310181
874,423.1189012527466,567.7828359603882
875,422.76673793792725,568.9878988265991
876,422.26874828338623,570.2746725082397
877,422.2689628601074,570.2735567092896
878,422.2885322570801,571.2371349334717
879,422.0276069641113,572.256031036377
880,421.8782615661621,573.1958770751953
881,421.79084300994873,573.683352470398
882,421.1562967300415,574.2436122894287
883,421.1555242538452,574.2439985275269
884,420.8504819869995,574.6826791763306
885,420.8341312408447,575.4936933517456
886,420.86451530456543,575.7243204116821
887,420.83438873291016,576.0844230651855
888,420.46913623809814,576.5344333648682
889,420.46969413757324,576.5291547775269
890,420.5177164077759,576.7651462554932
891,420.62946796417236,576.4679574966431
892,420.6450891494751,576.3881778717041
893,420.8670473098755,575.7995080947876
894,421.0396099090576,575.3388547897339
895,421.0280227661133,575.3315591812134
896,421.06544494628906,575.2435827255249
897,421.30950450897217,576.013355255127
898,420.9068727493286,576.8858671188354
899,420.7368850708008,576.8341112136841
900,421.58021450042725,578.2850790023804
901,421.58012866973877,578.2854652404785
902,419.9938488006592,582.0310735702515
903,420.35725593566895,582.7889585494995
904,420.4093551635742,583.9690446853638
905,420.4740285873413,584.4573783874512
906,420.4015016555786,585.0954437255859
907,420.3973388671875,585.1016664505005
908,419.94325160980225,585.1640224456787
909,419.6128463745117,584.5546245574951
910,419.11983489990234,583.4845733642578
911,419.0591526031494,582.0316743850708
912,419.0239191055298,580.3501653671265
913,419.0164518356323,580.3515815734863
914,418.8486099243164,579.4759368896484
915,418.94697189331055,579.1439008712769
916,418.71201038360596,579.2354822158813
917,418.39272022247314,579.4119930267334
918,418.1600761413574,579.1717958450317
919,418.1608486175537,579.1722249984741
920,417.64564990997314,579.0421915054321
921,417.31730461120605,578.2547807693481
922,416.59589767456055,576.6775560379028
923,416.05400562286377,575.537896156311
924,415.9604072570801,574.7800970077515
925,415.9592056274414,574.7503566741943
926,415.35354137420654,574.1158962249756
927,415.28642177581787,574.0168476104736
928,415.33761978149414,573.9328193664551
929,415.3254747390747,573.7263107299805
930,415.058798789978,573.4456014633179
931,415.058798789978,573.4455156326294
932,414.98395442962646,572.8731536865234
933,414.70951080322266,573.2160472869873
934,414.55634593963623,573.6981153488159
935,414.40086364746094,573.9092588424683
936,414.03977394104004,573.9078426361084
937,414.03595447540283,573.9086151123047
938,413.68117332458496,573.4716081619263
939,413.1156349182129,571.8636989593506
940,412.34148502349854,569.3793296813965
941,411.77680492401123,565.8949041366577
942,411.24062061309814,561.6753387451172
943,411.24040603637695,561.6735792160034
944,411.00050926208496,558.0076217651367
945,411.21216773986816,556.3713884353638
946,411.88499450683594,555.908932685852
947,412.54554748535156,555.8419847488403
948,413.2497024536133,556.4750289916992
949,413.2373857498169,556.4844274520874
950,413.7311267852783,557.754807472229
951,413.7040901184082,557.8641557693481
952,413.8346815109253,557.8485774993896
953,413.6452102661133,557.0652437210083
954,413.82373809814453,555.9556245803833
955,413.82343769073486,555.9573841094971
956,413.79661560058594,555.032000541687
957,414.70543384552,556.3223361968994
958,415.6198740005493,557.4326848983765
959,417.1304512023926,560.4283475875854
960,418.8043212890625,563.6284160614014
961,418.80573749542236,563.6084175109863
962,420.30378341674805,566.7698192596436
963,421.5544652938843,569.2277956008911
964,422.43792057037354,570.9609317779541
965,422.9034233093262,572.5209903717041
966,423.33176136016846,573.4128999710083
967,423.3299160003662,573.4141445159912
968,424.0032148361206,573.0942535400391
969,425.0611209869385,572.7460813522339
970,425.74896812438965,572.4745559692383
971,426.18897914886475,573.2591342926025
972,426.31914138793945,573.8870286941528
973,426.3032627105713,573.8987445831299
974,425.91633796691895,575.4652833938599
975,424.9380397796631,576.2813186645508
976,424.5923137664795,577.9139471054077
977,424.6204662322998,579.9518251419067
978,423.9906406402588,582.725100517273
979,423.99038314819336,582.7252721786499
980,424.2523384094238,584.9735641479492
981,424.84740257263184,587.4678897857666
982,424.6483612060547,589.3934154510498
983,424.48253631591797,590.5842733383179
984,424.24169540405273,591.0573291778564
985,424.241738319397,591.0573720932007
986,423.62701892852783,591.1167669296265
987,422.9365110397339,590.8070039749146
988,422.17673778533936,589.8553991317749
989,421.45185470581055,588.8104104995728
990,420.5229091644287,587.3343372344971
991,420.5221366882324,587.3348951339722
992,419.78909969329834,585.7505035400391
993,419.3937635421753,584.737958908081
994,419.1426658630371,584.443302154541
995,418.7195634841919,584.1039276123047
996,418.64386081695557,584.3250703811646
997,418.6439037322998,584.3252420425415
998,418.6824417114258,584.8296689987183
999,418.7354850769043,584.7332811355591
1000,418.7042427062988,584.7512197494507
1001,418.54318141937256,584.7670984268188
1002,412.4542236328125,598.8658618927002
1003,412.442421913147,598.8310146331787
1004,412.61876106262207,598.7059164047241
1005,412.6536512374878,598.4428882598877
1006,412.7692222595215,598.3911323547363
1007,412.90753841400146,598.2726430892944
1008,412.8490447998047,597.9308652877808
1009,412.8351402282715,597.9008674621582
1010,412.85955905914307,597.707576751709
1011,412.81702995300293,597.2625017166138
1012,412.8559112548828,596.8369960784912
1013,412.9586935043335,596.4224338531494
1014,412.9984760284424,596.2014198303223
1015,413.0321216583252,596.1285495758057
1016,413.20841789245605,596.048641204834
1017,413.3324861526489,595.8753061294556
1018,413.5169792175293,595.7753133773804
1019,413.61332416534424,595.5183792114258
1020,413.78901958465576,595.1236009597778
1021,413.8319778442383,595.1144599914551
1022,413.7604808807373,595.1355743408203
1023,413.71859550476074,595.2683115005493
1024,413.6475706100464,595.2388286590576
1025,413.5808801651001,595.3404092788696
1026,413.34003925323486,595.0190591812134
1027,413.34003925323486,595.0192737579346
1028,413.12614917755127,594.6552658081055
1029,412.98083782196045,594.0488719940186
1030,412.7358341217041,593.0595874786377
1031,412.59854793548584,592.3892068862915
1032,412.12514877319336,591.3012599945068
1033,412.12759494781494,591.3046932220459
1034,411.90486431121826,590.2679014205933
1035,411.84946060180664,589.9818706512451
1036,412.06236362457275,590.1944732666016
1037,412.2794723510742,590.4182767868042
1038,412.5774335861206,590.8040857315063
1039,412.60404109954834,590.8074331283569
1040,412.92290210723877,590.9307718276978
1041,413.26897144317627,591.1021327972412
1042,413.6758518218994,591.0501194000244
1043,414.01166439056396,590.539083480835
1044,414.46961402893066,589.8184061050415
1045,414.4697856903076,589.8189640045166
1046,414.8560667037964,589.5672655105591
1047,415.3122568130493,588.7926006317139
1048,415.64000129699707,588.8088226318359
1049,416.04997158050537,589.0629243850708
1050,416.2520170211792,589.8088788986206
1051,416.2566947937012,589.8069047927856
1052,416.76270961761475,590.7867908477783
1053,416.8100881576538,591.2819051742554
1054,417.07380294799805,591.3798379898071
1055,417.1263313293457,590.9584951400757
1056,417.25473403930664,589.2970705032349
1057,417.2527599334717,589.2779731750488
1058,417.3407793045044,586.7692708969116
1059,417.3294925689697,583.8497400283813
1060,417.8825855255127,580.9052753448486
1061,418.76479625701904,578.7000274658203
1062,420.2258062362671,577.8086757659912
1063,420.225248336792,577.8096199035645
1064,421.35958671569824,577.9003429412842
1065,422.4894618988037,578.6942338943481
1066,423.2605218887329,580.2501726150513
1067,423.1913423538208,581.7580032348633
1068,423.2588052749634,584.1779136657715
1069,423.2588052749634,584.1779136657715
1070,422.7422761917114,585.0741577148438
1071,422.17562198638916,585.6602096557617
1072,421.8395519256592,586.1484575271606
1073,421.34018898010254,586.670093536377
1074,420.86284160614014,587.1708297729492
1075,420.86262702941895,587.1704864501953
1076,420.5463409423828,588.3189868927002
1077,420.29133796691895,589.4828081130981
1078,420.03517627716064,590.406002998352
1079,419.9724340438843,591.4501333236694
1080,418.8005018234253,592.3995494842529
1081,418.79942893981934,592.3992490768433
1082,418.2676649093628,593.0307054519653
1083,417.488751411438,593.778805732727
1084,416.1904764175415,594.3259763717651
1085,415.28908252716064,594.8675680160522
1086,414.6686553955078,595.4206609725952
1087,414.6686553955078,595.4205751419067
1088,413.51165771484375,595.5584621429443
1089,412.68266201019287,596.0740900039673
1090,411.64385318756104,596.0606575012207
1091,410.9117603302002,595.8954334259033
1092,409.8420524597168,596.389217376709
1093,409.84033584594727,596.3688325881958
1094,408.5074710845947,596.0570526123047
1095,406.16103172302246,595.1600790023804
1096,393.3097743988037,596.8613719940186
1097,391.7978239059448,597.971076965332
1098,391.20649337768555,599.2243766784668
1099,391.2064504623413,599.2243766784668
1100,391.33742809295654,600.4248476028442
1101,391.32378101348877,600.918288230896
1102,391.0828113555908,601.0565614700317
1103,390.4719114303589,600.4337739944458
1104,389.5485019683838,599.5085620880127
1105,389.5485019683838,599.5085620880127
1106,388.92614364624023,598.7034273147583
1107,387.66880989074707,597.3371744155884
1108,386.7817497253418,596.158332824707
1109,385.7093381881714,595.1079797744751
1110,384.99844551086426,594.1801071166992
1111,384.9964714050293,594.1798067092896
1112,384.5851707458496,593.5719108581543
1113,384.0194606781006,593.4895133972168
1114,383.5166645050049,593.0237531661987
1115,382.9915952682495,592.6622343063354
1116,382.20903396606445,591.3322877883911
1117,382.20813274383545,591.3246059417725
1118,381.6226387023926,589.9493408203125
1119,381.33171558380127,588.9601421356201
1120,381.45256519317627,588.2637977600098
1121,381.7170524597168,588.0977153778076
1122,382.231822013855,587.4753570556641
1123,382.23225116729736,587.4760866165161
1124,382.6348400115967,586.8328285217285
1125,383.046612739563,586.0870885848999
1126,383.7498664855957,585.1865100860596
1127,384.68276023864746,584.3339109420776
1128,385.66500663757324,583.3200788497925
1129,385.66749572753906,583.3075046539307
1130,386.5201807022095,582.9942226409912
1131,387.474102973938,582.6974630355835
1132,388.5987424850464,582.9256010055542
1133,389.3501043319702,584.1273164749146
1134,390.2360486984253,585.6230449676514
1135,390.2360486984253,585.6230878829956
1136,390.975136756897,587.0570611953735
1137,391.50672912597656,587.9788398742676
1138,392.1212339401245,588.5338640213013
1139,392.45794773101807,588.0043315887451
1140,392.84289836883545,586.6946840286255
1141,392.8429412841797,586.6946840286255
1142,393.24578762054443,584.21799659729
1143,393.58850955963135,581.5064764022827
1144,393.950457572937,578.0250978469849
1145,394.9349784851074,574.497241973877
1146,396.21222496032715,572.3581695556641
1147,396.22016429901123,572.3567533493042
1148,397.21245288848877,572.3003625869751
1149,398.1507968902588,572.334394454956
1150,398.89795303344727,574.1056394577026
1151,399.46237564086914,574.6125984191895
1152,399.92053985595703,575.7783937454224
1153,399.9213123321533,575.779767036438
1154,400.1280355453491,576.9938850402832
1155,400.2574682235718,576.8419647216797
1156,400.3008556365967,576.5319013595581
1157,400.40419578552246,576.012454032898
1158,400.716233253479,575.9724140167236
1159,400.7139587402344,575.968508720398
1160,401.19585514068604,575.6977987289429
1161,401.61603927612305,576.0978984832764
1162,402.4340486526489,576.7177248001099
1163,403.33295345306396,577.2751522064209
1164,404.28739070892334,578.4313774108887
1165,404.294171333313,578.4387159347534
1166,405.3352975845337,579.6613311767578
1167,406.41414642333984,580.7837390899658
1168,407.3583698272705,581.6951751708984
1169,408.4958839416504,582.6651477813721
1170,409.49525356292725,583.2181549072266
1171,409.4949531555176,583.2184553146362
1172,410.6140995025635,583.9845371246338
1173,411.6284465789795,584.0277528762817
1174,412.8003787994385,583.865532875061
1175,413.9330863952637,583.3575439453125
1176,414.89134311676025,582.4882078170776
1177,414.89134311676025,582.4882078170776
1178,416.11013889312744,582.3673582077026
1179,416.7558431625366,583.0798387527466
1180,416.942138671875,585.5467414855957
1181,423.9215040206909,586.8992185592651
1182,424.1851758956909,588.6769008636475
1183,424.2006254196167,588.6549282073975
1184,425.81209659576416,589.6038293838501
1185,427.0548391342163,589.869647026062
1186,427.8469705581665,590.469217300415
1187,428.4637928009033,590.8345127105713
1188,428.3434581756592,590.9900379180908
1189,428.33680629730225,590.986647605896
1190,428.18849086761475,590.7335758209229
1191,427.63827323913574,589.7736024856567
1192,427.17058181762695,588.4574747085571
1193,426.79314136505127,587.0379209518433
1194,426.618390083313,584.8850727081299
1195,426.624698638916,584.8844718933105
1196,413.2527494430542,584.7333240509033
1197,413.1972599029541,584.2107009887695
1198,412.9570198059082,584.1661548614502
1199,412.6825761795044,584.4817543029785
1200,412.1149778366089,585.0137758255005
1201,412.1109867095947,585.0065231323242
1202,411.60316944122314,585.6317567825317
1203,410.8422374725342,584.6621704101562
1204,410.06263732910156,583.0994939804077
1205,409.04271125793457,581.7503213882446
1206,408.4666585922241,580.9556150436401
1207,408.4666585922241,580.9558296203613
1208,408.10625553131104,581.1041879653931
1209,407.7865791320801,581.4639472961426
1210,407.60212898254395,581.9279909133911
1211,407.42106914520264,582.2930717468262
1212,407.41278648376465,582.331223487854
1213,407.40124225616455,582.3477029800415
1214,407.12443828582764,581.3742542266846
1215,406.96908473968506,580.519552230835
1216,406.58610820770264,579.8199033737183
1217,406.45384311676025,579.9434995651245
1218,406.2612819671631,580.5019569396973
1219,406.25415802001953,580.5017852783203
1220,406.251540184021,580.981707572937
1221,406.24184131622314,581.5550565719604
1222,406.13884449005127,580.8532190322876
1223,405.8226442337036,579.0028810501099
1224,405.4819393157959,576.2573719024658
1225,405.4821538925171,576.258659362793
1226,405.1183605194092,572.4796628952026
1227,405.2806234359741,568.663501739502
1228,406.03983879089355,566.4634895324707
1229,407.9979372024536,564.9120569229126
1230,410.94287395477295,564.7176504135132
1231,410.9470796585083,564.7158908843994
1232,414.5700788497925,565.2582550048828
1233,417.88713455200195,565.7986879348755
1234,421.9141387939453,566.0446357727051
1235,425.8877992630005,565.9778594970703
1236,429.5294237136841,565.7182216644287
1237,429.5236301422119,565.7330274581909
1238,433.1678295135498,566.1071634292603
1239,436.9761800765991,567.7537822723389
1240,441.18754863739014,569.1382312774658
1241,445.6291151046753,570.4470205307007
1242,450.13333797454834,571.6808366775513
1243,450.13411045074463,571.6827249526978
1244,454.56520557403564,571.8100118637085
1245,458.6305332183838,570.7258415222168
1246,462.65830993652344,570.6254196166992
1247,466.24101161956787,569.8823833465576
1248,469.8487329483032,569.4307851791382
1249,469.8486042022705,569.4306135177612
1250,473.4689426422119,569.123854637146
1251,477.071213722229,569.249382019043
1252,481.1154270172119,569.9289464950562
1253,484.9301290512085,570.2636003494263
1254,488.9571762084961,571.1729335784912
1255,488.94739151000977,571.1809158325195
1256,493.16154956817627,572.0320987701416
1257,497.4343729019165,572.61390209198
1258,501.11002922058105,571.9784116744995
1259,504.3643856048584,571.1843061447144
1260,507.55853176116943,570.4687356948853
1261,507.5584888458252,570.4701519012451
1262,510.55342197418213,570.9048414230347
1263,513.0032444000244,572.7402448654175
1264,515.5577373504639,574.7567081451416
1265,518.3347034454346,577.1333169937134
1266,522.0604419708252,580.1792764663696
1267,522.0571804046631,580.1812076568604
1268,526.0564613342285,584.1840076446533
1269,530.0087928771973,586.66090965271
1270,532.812066078186,587.5814008712769
1271,536.075005531311,587.8415107727051
1272,538.4320020675659,586.5486001968384
1273,538.425178527832,586.5619039535522
1274,540.9523773193359,584.7864532470703
1275,542.9761362075806,581.620717048645
1276,544.7202587127686,577.9440307617188
1277,545.8312940597534,573.6332273483276
1278,546.6948366165161,570.6746864318848
1279,546.6940212249756,570.6746006011963
1280,546.8646097183228,569.9351263046265
1281,546.3778209686279,570.1320219039917
1282,545.2324104309082,571.7400598526001
1283,543.4595346450806,573.3088302612305
1284,541.5430212020874,574.4663000106812
1285,541.5596294403076,574.5165967941284
1286,539.476261138916,575.4237842559814
1287,537.2343635559082,575.2971839904785
1288,535.001950263977,574.4314527511597
1289,532.7970027923584,573.8485765457153
1290,530.1489973068237,573.8265180587769
1291,530.149040222168,573.8264751434326
1292,527.62038230896,574.5641469955444
1293,524.8685216903687,575.5971193313599
1294,521.4166688919067,576.6250705718994
1295,518.4232378005981,576.8343687057495
1296,500.8315944671631,590.3411149978638
1297,500.8315944671631,590.3411149978638
1298,497.6776170730591,589.0790605545044
1299,494.29133892059326,588.032054901123
1300,490.83579540252686,586.5405750274658
1301,487.8663969039917,586.6904783248901
1302,484.3783664703369,586.493968963623
1303,484.3822717666626,586.484785079956
1304,481.0018730163574,586.8892192840576
1305,477.3170757293701,587.4657011032104
1306,473.6512041091919,588.105354309082
1307,469.8866271972656,588.3822441101074
1308,466.3386869430542,587.8849411010742
1309,466.3392448425293,587.8799629211426
1310,462.8333616256714,587.629337310791
1311,460.0110340118408,587.9379415512085
1312,457.34925270080566,588.8559436798096
1313,455.1466226577759,590.0555562973022
1314,452.94270515441895,590.6263303756714
1315,452.9427909851074,590.6263303756714
1316,450.67681789398193,590.9424877166748
1317,448.2653617858887,590.5409717559814
1318,445.8189296722412,588.9224195480347
1319,443.27314853668213,586.5800142288208
1320,440.90168952941895,583.2725286483765
1321,440.901517868042,583.272271156311
1322,438.5685110092163,579.7125720977783
1323,437.0759582519531,576.8948793411255
1324,436.46625995635986,576.2158727645874
1325,436.64358615875244,576.9916534423828
1326,437.0566463470459,579.3562459945679
1327,437.0562171936035,579.3585205078125
1328,437.6160478591919,580.9648418426514
1329,438.031210899353,583.1556272506714
1330,438.014817237854,584.3799591064453
1331,437.42812156677246,585.2597665786743
1332,437.32285022735596,585.5506038665771
1333,437.33538150787354,585.5306482315063
1334,437.3228931427002,585.7000780105591
1335,437.6027011871338,586.5798854827881
1336,438.10961723327637,587.5568103790283
1337,438.7908124923706,588.5982799530029
1338,439.40574645996094,589.3462514877319
1339,439.40574645996094,589.3462514877319
1340,439.7770071029663,589.9577522277832
1341,440.12402057647705,590.3769063949585
1342,441.07262134552,591.1097288131714
1343,441.5519857406616,591.4402627944946
1344,442.3547172546387,591.7997646331787
1345,442.34313011169434,591.79603099823
1346,443.03874492645264,591.9787645339966
1347,443.73998165130615,591.3536167144775
1348,444.30363178253174,590.3613710403442
1349,445.07773876190186,589.4643545150757
1350,445.597186088562,588.6688756942749
1351,445.59654235839844,588.6690473556519
1352,446.13680362701416,589.5142221450806
1353,446.32086753845215,590.3462648391724
1354,446.4599132537842,591.0911893844604
1355,446.705002784729,591.9872617721558
1356,448.04215908050537,592.122745513916
1357,448.04134368896484,592.1136474609375
1358,449.1087770462036,593.9145469665527
1359,449.5604610443115,594.5299100875854
1360,449.43527698516846,594.9805212020874
1361,449.3459701538086,595.4487705230713
1362,448.85557651519775,595.2468967437744
1363,448.84871006011963,595.2479696273804
1364,448.54491233825684,594.5640277862549
1365,447.974009513855,593.3838987350464
1366,447.4908256530762,591.9673919677734
1367,447.2119617462158,590.6701469421387
1368,446.7998456954956,589.8737668991089
1369,446.79975986480713,589.8747539520264
1370,446.1587333679199,589.5087289810181
1371,445.6095886230469,590.2056312561035
1372,444.9066352844238,590.4575872421265
1373,444.03717041015625,590.632381439209
1374,443.1512689590454,590.9093570709229
1375,443.15345764160156,590.9083700180054
1376,442.0193338394165,589.653697013855
1377,440.8251714706421,587.682638168335
1378,439.88858699798584,586.1901712417603
1379,438.98895263671875,585.8665895462036
1380,438.1339931488037,585.6666469573975
1381,438.1339931488037,585.6666469573975
1382,437.2083520889282,585.8589935302734
1383,436.2877321243286,586.234073638916
1384,435.46525955200195,586.3059139251709
1385,434.6845865249634,586.271710395813
1386,433.91056537628174,585.4449892044067
1387,433.91820430755615,585.4448175430298
1388,432.9693031311035,585.2361631393433
1389,431.8467664718628,585.3188610076904
1390,430.9594488143921,585.6464338302612
1391,430.12946605682373,585.9919881820679
1392,429.15339946746826,585.506100654602
1393,429.1555881500244,585.5064010620117
1394,428.0218505859375,584.1249990463257
1395,426.817946434021,581.7628955841064
1396,419.0531015396118,584.5508909225464
1397,417.8510856628418,580.3757858276367
1398,417.06818103790283,576.0167026519775
1399,417.06303119659424,576.0152006149292
1400,417.3418092727661,573.408522605896
1401,418.68321418762207,573.3759069442749
1402,420.93785762786865,573.4270620346069
1403,424.18813705444336,575.2120399475098
1404,427.5121021270752,577.5239753723145
1405,427.51205921173096,577.5239324569702
1406,430.64530849456787,579.3950843811035
1407,433.5097360610962,581.0989952087402
1408,436.16143226623535,582.5609922409058
1409,438.5691976547241,583.7152862548828
1410,440.92220306396484,583.9299488067627
1411,440.9222459793091,583.9299488067627
1412,443.1192111968994,583.3900737762451
1413,445.37471294403076,582.2009325027466
1414,447.5911617279053,581.055736541748
1415,449.7406196594238,580.2969932556152
1416,451.9725179672241,580.0382566452026
1417,451.9808006286621,580.0426769256592
1418,454.364275932312,580.1745128631592
1419,456.92915439605713,580.3099536895752
1420,459.3830966949463,580.163311958313
1421,461.56684398651123,580.1749420166016
1422,463.62952709198,580.2237367630005
1423,463.6285400390625,580.2252388000488
1424,465.7199764251709,580.1164484024048
1425,467.52975940704346,579.5524978637695
1426,469.3054676055908,579.3452596664429
1427,471.1803102493286,579.4811296463013
1428,472.62617111206055,580.3055334091187
1429,472.5857877731323,580.3027439117432
1430,474.63632583618164,581.6271543502808
1431,476.1824369430542,581.9721508026123
1432,477.75511264801025,583.3715343475342
1433,480.0095844268799,585.1266431808472
1434,482.0078945159912,586.347713470459
1435,482.00905323028564,586.3364696502686
1436,483.54151725769043,587.75954246521
1437,485.2472734451294,589.1697406768799
1438,486.07532501220703,589.6494054794312
1439,486.91200256347656,589.5160675048828
1440,487.65851497650146,588.9434051513672
1441,487.65907287597656,588.9437055587769
1442,488.37202548980713,587.7749061584473
1443,488.8270139694214,585.8635854721069
1444,489.4723320007324,583.8523578643799
1445,489.7489643096924,581.1267614364624
1446,490.05937099456787,579.2939329147339
1447,490.057053565979,579.2920017242432
1448,490.05070209503174,578.8881254196167
1449,489.59648609161377,579.4033241271973
1450,488.81495475769043,580.631046295166
1451,487.80198097229004,581.9021129608154
1452,486.64124965667725,582.853889465332
1453,486.6387176513672,582.857837677002
1454,485.16247272491455,582.7717924118042
1455,483.54761123657227,581.7913055419922
1456,481.6840982437134,580.4395151138306
1457,479.9754238128662,578.8891124725342
1458,478.10276985168457,578.2049560546875
1459,478.0913543701172,578.1410551071167
1460,476.22329235076904,578.2555103302002
1461,474.0431499481201,578.8895416259766
1462,471.8515920639038,579.4567108154297
1463,469.3985080718994,579.9047899246216
1464,467.00632095336914,579.9111843109131
1465,467.00632095336914,579.9111843109131
1466,464.09833431243896,579.4957208633423
1467,461.4871072769165,578.4544229507446
1468,458.9589214324951,577.7406549453735
1469,456.6242837905884,577.1876907348633
1470,454.3071126937866,577.1912097930908
1471,454.3087434768677,577.2166156768799
1472,452.1337080001831,577.584056854248
1473,449.88425731658936,578.5890913009644
1474,447.69922256469727,579.4212627410889
1475,445.4166841506958,579.8447942733765
1476,443.1623411178589,579.7690486907959
1477,443.16242694854736,579.7695207595825
1478,440.75762271881104,578.7865018844604
1479,438.72090339660645,577.4636793136597
1480,436.8150329589844,576.9144916534424
1481,435.8311128616333,577.1048641204834
1482,434.97130393981934,577.771725654602
1483,434.9713468551636,577.7721118927002
1484,434.6342897415161,579.6284580230713
1485,434.5701313018799,581.9621086120605
1486,434.4245195388794,583.5029411315918
1487,434.2160367965698,584.3412923812866
1488,434.0724849700928,583.7822341918945
1489,434.07334327697754,583.8301277160645
1490,433.7609624862671,582.3235416412354
1491,433.4176826477051,580.0155115127563
1492,433.2801818847656,577.4058294296265
1493,433.1828498840332,574.148211479187
1494,433.63243103027344,571.6539716720581
1495,433.6327314376831,571.6564178466797
1496,421.0903787612915,580.3760004043579
1497,423.34193229675293,580.8739471435547
1498,426.40458583831787,581.909236907959
1499,429.8489713668823,583.7533092498779
1500,433.14521312713623,585.4910802841187
1501,433.1455993652344,585.4912090301514
1502,436.22275829315186,587.813401222229
1503,439.2642116546631,589.5518159866333
1504,441.7633867263794,591.0404634475708
1505,444.1153621673584,592.3430728912354
1506,446.3045597076416,592.9033327102661
1507,446.3189363479614,592.9211854934692
1508,448.3360433578491,592.8243255615234
1509,450.48078060150146,592.2045850753784
1510,452.5881814956665,591.4129686355591
1511,454.81059551239014,590.7656335830688
1512,457.06583976745605,590.3547191619873
1513,457.06583976745605,590.3546762466431
1514,459.35121059417725,590.1821994781494
1515,461.5637540817261,590.0233697891235
1516,463.49812030792236,590.1741313934326
1517,465.4051923751831,590.4918336868286
1518,467.15686798095703,590.5998945236206
1519,467.15978622436523,590.6016111373901
1520,469.2359447479248,590.2209949493408
1521,471.36497497558594,589.7676801681519
1522,473.16630363464355,588.6537265777588
1523,474.8605155944824,587.215461730957
1524,476.9372320175171,585.3563690185547
1525,476.9370174407959,585.3528499603271
1526,478.55690002441406,583.5747814178467
1527,480.10249614715576,582.9487323760986
1528,481.2257194519043,582.9571437835693
1529,482.29066371917725,582.8214883804321
1530,482.86049365997314,583.0035352706909
1531,482.86049365997314,583.0034065246582
1532,484.49333667755127,584.0148782730103
1533,486.6085910797119,584.2387676239014
1534,488.4988832473755,585.7429075241089
1535,489.40568447113037,586.9625186920166
1536,489.9656867980957,587.9495286941528
1537,489.9117851257324,587.8845119476318
1538,490.1517677307129,588.266544342041
1539,490.2578115463257,588.3070135116577
1540,490.5978298187256,587.4575042724609
1541,490.5585193634033,585.964822769165
1542,490.6350374221802,583.8060092926025
1543,490.6374406814575,583.7990140914917
1544,490.50049781799316,581.0120058059692
1545,490.2260971069336,578.1244039535522
1546,489.92719173431396,576.506838798523
1547,489.2080593109131,576.9902801513672
1548,488.1485652923584,578.4151554107666
1549,488.14860820770264,578.4151124954224
1550,486.61378383636475,579.816083908081
1551,484.538311958313,580.9891319274902
1552,482.58750915527344,581.077151298523
1553,480.5721616744995,580.396900177002
1554,478.6024332046509,580.167989730835
1555,478.6024332046509,580.167989730835
1556,476.3192081451416,581.1257314682007
1557,474.2781114578247,582.1864700317383
1558,471.89892768859863,583.1370878219604
1559,469.43172454833984,584.2288112640381
1560,466.8467617034912,584.3649387359619
1561,466.83976650238037,584.3657112121582
1562,464.28295612335205,584.1885995864868
1563,461.8664360046387,583.6427164077759
1564,459.5461320877075,583.8129186630249
1565,457.302303314209,584.6664619445801
1566,455.13525009155273,585.8303689956665
1567,455.1353359222412,585.830454826355
1568,452.95042991638184,586.6812086105347
1569,450.4690217971802,586.9272422790527
1570,448.0908679962158,586.2369918823242
1571,445.4530334472656,584.2920684814453
1572,442.7888059616089,581.25563621521
1573,442.78889179229736,581.2557220458984
1574,439.74602222442627,578.0633354187012
1575,436.57251834869385,575.265212059021
1576,432.711124420166,573.9396858215332
1577,428.7242031097412,573.8045024871826
1578,424.76200103759766,574.532732963562
1579,424.7648763656616,574.5391273498535
1580,420.58088779449463,575.2017402648926
1581,416.63087368011475,576.1249351501465
1582,413.0078315734863,577.0960664749146
1583,409.812912940979,578.496823310852
1584,406.82905197143555,580.166916847229
1585,406.82905197143555,580.1668739318848
1586,403.8827419281006,582.8890800476074
1587,401.02603912353516,585.7125234603882
1588,397.73975372314453,587.4858283996582
1589,394.78387355804443,589.5565795898438
1590,391.05547428131104,590.3497838973999
1591,391.05547428131104,590.3497838973999
1592,387.53551483154297,591.2707042694092
1593,383.89062881469727,591.2770986557007
1594,380.5694103240967,591.1232900619507
1595,377.4845266342163,590.8588457107544
1596,372.6075839996338,585.1450538635254
1597,372.6075839996338,585.1450967788696
1598,369.53248500823975,584.8330593109131
1599,366.79590225219727,584.2499256134033
1600,364.14068698883057,584.0868043899536
1601,361.121506690979,584.2135763168335
1602,357.9668641090393,584.1535806655884
1603,357.9699110984802,584.1631507873535
1604,354.3762230873108,584.1984701156616
1605,351.32534980773926,583.992133140564
1606,348.1428122520447,583.5660266876221
1607,344.99655961990356,583.809871673584
1608,343.29140424728394,586.2110710144043
1609,343.2913613319397,586.2109851837158
1610,341.5497064590454,588.8309240341187
1611,340.04743337631226,592.0931339263916
1612,338.998818397522,595.319938659668
1613,337.96968698501587,597.2650766372681
1614,336.9778060913086,599.4597673416138
1615,336.98514461517334,599.4641017913818
1616,335.7283043861389,601.2147045135498
1617,335.12710332870483,602.0994472503662
1618,334.51871395111084,602.4549150466919
1619,333.41896533966064,601.8563318252563
1620,332.82806396484375,600.5745363235474
1621,332.82806396484375,600.5744075775146
1622,331.736319065094,598.0893516540527
1623,330.6577706336975,594.5229578018188
1624,330.0661611557007,590.3650617599487
1625,329.6413850784302,586.6680335998535
1626,329.43753719329834,584.3242120742798
1627,329.4366788864136,584.3236541748047
1628,329.6448612213135,583.9953088760376
1629,330.1185607910156,585.030255317688
1630,330.64639806747437,585.9169721603394
1631,331.15711212158203,586.9697713851929
1632,331.80172204971313,587.922191619873
1633,331.80946826934814,587.9119348526001
1634,332.35174655914307,587.9716300964355
1635,333.0979585647583,588.0684900283813
1636,333.3985376358032,588.0302095413208
1637,333.7203598022461,587.8184652328491
1638,334.01739835739136,587.4813652038574
1639,334.01840686798096,587.480034828186
1640,334.0038800239563,587.1271419525146
1641,334.19933795928955,586.8708515167236
1642,334.12790536880493,586.746096611023
1643,334.0690040588379,586.5084314346313
1644,333.8637614250183,586.6182088851929
1645,333.86382579803467,586.6183376312256
1646,333.5073494911194,586.4065074920654
1647,333.4351444244385,586.3531637191772
1648,333.20361614227295,586.452169418335
1649,333.334379196167,587.0427703857422
1650,333.32425117492676,587.6465034484863
1651,333.3238434791565,587.6522970199585
1652,333.36203813552856,588.2553863525391
1653,333.53893518447876,588.3555507659912
1654,333.81121158599854,587.7994966506958
1655,333.88609886169434,586.1588859558105
1656,333.8878583908081,583.7069606781006
1657,333.8881587982178,583.7082052230835
1658,333.9543128013611,580.8027935028076
1659,333.54151010513306,576.9995927810669
1660,332.48793840408325,573.650221824646
1661,330.5811667442322,572.2808361053467
1662,328.11443567276,571.6176652908325
1663,328.113534450531,571.6168069839478
1664,325.08459091186523,572.5053691864014
1665,321.75745010375977,574.1021633148193
1666,318.8537549972534,575.2116537094116
1667,316.12738609313965,576.3209295272827
1668,313.4693384170532,578.3477783203125
1669,313.4602618217468,578.4470844268799
1670,311.29172801971436,579.4934034347534
1671,309.21677112579346,581.1514377593994
1672,306.88116788864136,581.6449642181396
1673,304.44602251052856,581.6610145568848
1674,302.32139110565186,581.1632823944092
1675,302.31746435165405,581.1516094207764
1676,299.7462558746338,579.8905849456787
1677,297.736337184906,578.5534715652466
1678,295.5671167373657,577.4315357208252
1679,293.19894075393677,576.4462852478027
1680,290.9506916999817,575.5760908126831
1681,290.95062732696533,575.5763483047485
1682,288.44387769699097,574.7625875473022
1683,285.95208406448364,573.5003185272217
1684,282.9721927642822,572.614803314209
1685,279.9434423446655,571.8373918533325
1686,276.7077970504761,570.7605171203613
1687,276.7020034790039,570.7264423370361
1688,273.25817584991455,570.8394813537598
1689,270.84781408309937,572.2037172317505
1690,269.16061878204346,574.6342277526855
1691,267.7029776573181,576.76673412323
1692,266.64989948272705,578.6997270584106
1693,266.6500496864319,578.6997699737549
1694,265.9488558769226,579.9049615859985
1695,265.57740211486816,580.8057117462158
1696,264.7629761695862,581.8319034576416
1697,264.4423770904541,583.3693885803223
1698,264.2597723007202,584.011960029602
1699,264.2598581314087,584.0120029449463
1700,264.37729597091675,583.5962390899658
1701,264.4850564002991,582.9388618469238
1702,264.94937896728516,581.1614799499512
1703,265.56371212005615,579.4517755508423
1704,266.39461755752563,577.5277090072632
1705,266.38959646224976,577.5474071502686
1706,267.55120754241943,576.3502836227417
1707,269.1988778114319,575.4699182510376
1708,270.66922187805176,574.4071626663208
1709,272.1696066856384,573.5858917236328
1710,273.7622594833374,572.6390504837036
1711,273.774619102478,572.6808500289917
1712,275.6993508338928,573.0028867721558
1713,277.71414041519165,573.8046312332153
1714,280.0310754776001,574.9924850463867
1715,282.33487844467163,576.3142776489258
1716,284.6189618110657,576.9568920135498
1717,284.6189618110657,576.9567203521729
1718,286.9535779953003,577.4004650115967
1719,289.28139209747314,576.9240188598633
1720,291.72786712646484,576.3342761993408
1721,294.18972730636597,575.442795753479
1722,297.0011329650879,575.3214740753174
1723,296.99491024017334,575.307183265686
1724,299.9764323234558,575.5308151245117
1725,303.21664810180664,576.8195629119873
1726,306.5560841560364,577.6741790771484
1727,309.94210481643677,578.847484588623
1728,312.92532205581665,580.5769729614258
1729,312.92532205581665,580.5771446228027
1730,315.8252191543579,582.1772003173828
1731,318.61724853515625,583.8817548751831
1732,321.28018856048584,585.0491809844971
1733,323.9162850379944,585.5709886550903
1734,326.40812158584595,585.2091693878174
1735,326.40812158584595,585.2091693878174
1736,328.86064767837524,583.5830211639404
1737,331.5525770187378,581.4227485656738
1738,334.38486099243164,578.9137029647827
1739,337.1651315689087,576.668586730957
1740,340.0303316116333,574.5440196990967
1741,340.021812915802,574.5518732070923
1742,343.4857249259949,573.9598560333252
1743,347.3026156425476,574.0489912033081
1744,350.88744163513184,574.4028282165527
1745,353.9401602745056,575.1217031478882
1746,356.91333532333374,576.650218963623
1747,356.91616773605347,576.6447257995605
1748,359.8724341392517,577.6187753677368
1749,362.59800910949707,579.0984964370728
1750,365.0654697418213,580.3114557266235
1751,367.5528860092163,580.5187797546387
1752,370.091757774353,579.9111413955688
1753,370.091757774353,579.9113130569458
1754,372.6027774810791,579.0861368179321
1755,375.27820587158203,578.8054704666138
1756,377.91359424591064,578.6153984069824
1757,380.3305435180664,578.5387086868286
1758,382.96631813049316,578.2122087478638
1759,382.97563076019287,578.1845712661743
1760,385.94708919525146,578.0954790115356
1761,388.5052728652954,578.3480358123779
1762,391.00929737091064,578.6328649520874
1763,393.15025806427,578.693675994873
1764,395.7659912109375,578.5731267929077
1765,395.7664632797241,578.5763454437256
1766,398.0341100692749,578.3240461349487
1767,400.53478717803955,577.3736000061035
1768,402.8934144973755,577.0371866226196
1769,405.05900859832764,577.1443033218384
1770,406.6226291656494,578.411979675293
1771,406.62275791168213,578.412709236145
1772,408.7767219543457,580.7196235656738
1773,410.6101083755493,581.9009971618652
1774,412.9077100753784,583.2153224945068
1775,415.76879024505615,584.1732788085938
1776,418.19483757019043,584.6046209335327
1777,418.1961250305176,584.6062088012695
1778,419.839825630188,585.5213785171509
1779,421.4310836791992,586.2207698822021
1780,422.6952838897705,586.6027164459229
1781,423.78511905670166,586.4017868041992
1782,424.735951423645,585.8405828475952
1783,424.7359085083008,585.8405828475952
1784,425.7705545425415,584.4454479217529
1785,426.80580139160156,582.2841024398804
1786,427.681360244751,579.0869092941284
1787,428.4461545944214,575.1017045974731
1788,428.99508476257324,571.735897064209
1789,429.01233673095703,571.8209981918335
1790,429.1472625732422,569.3161153793335
1791,429.2406463623047,568.4441614151001
1792,428.8187026977539,569.0733432769775
1793,428.08759689331055,570.483455657959
1794,426.7870044708252,571.7991542816162
1795,426.78794860839844,571.8029737472534
1796,424.8455572128296,583.2720136642456
1797,423.0519962310791,582.6209020614624
1798,421.36207580566406,581.1385631561279
1799,419.1812038421631,580.1399660110474
1800,417.6152229309082,579.8065996170044
1801,417.61526584625244,579.8066425323486
1802,415.45198917388916,580.1745557785034
1803,413.56637477874756,580.7840394973755
1804,411.5027046203613,582.3602771759033
1805,409.13103103637695,582.9437971115112
1806,406.69777393341064,582.8929424285889
1807,406.69777393341064,582.8929424285889
1808,404.08135414123535,582.4721145629883
1809,401.8805694580078,582.165355682373
1810,399.67484951019287,582.7865552902222
1811,397.40840435028076,582.8900671005249
1812,395.2193784713745,583.7460994720459
1813,395.2196788787842,583.7462282180786
1814,393.25814723968506,583.9951801300049
1815,391.0620403289795,583.868408203125
1816,388.97583961486816,582.4491548538208
1817,386.8480968475342,580.3669881820679
1818,384.92480278015137,578.0332517623901
1819,384.9237298965454,578.0247116088867
1820,381.94355964660645,573.976936340332
1821,379.85907554626465,569.9300622940063
1822,378.2901334762573,565.1657724380493
1823,377.52705574035645,561.8189764022827
1824,378.0648708343506,560.6720638275146
1825,378.0643129348755,560.6712055206299
1826,380.3333330154419,560.7246780395508
1827,383.45585346221924,561.7210006713867
1828,387.28493213653564,562.416615486145
1829,390.89964866638184,563.2344961166382
1830,394.7136640548706,563.9861583709717
1831,394.7177839279175,564.0183877944946
1832,398.30679416656494,564.3669033050537
1833,401.8454647064209,565.1050472259521
1834,405.40452003479004,565.5603790283203
1835,409.13575172424316,566.7904186248779
1836,412.9452180862427,568.6158657073975
1837,412.9352617263794,568.5574150085449
1838,417.09221363067627,570.0164937973022
1839,421.29512786865234,570.8231735229492
1840,425.4436254501343,570.8642435073853
1841,429.42835807800293,570.1577281951904
1842,433.24872493743896,569.3683004379272
1843,433.2486820220947,569.3683004379272
1844,436.9063997268677,568.9752817153931
1845,440.36872386932373,569.1857814788818
1846,444.16823387145996,570.2904653549194
1847,447.7932929992676,570.9159994125366
1848,451.3579273223877,571.606035232544
1849,451.3581418991089,571.5882682800293
1850,454.7604703903198,571.4652299880981
1851,458.1748580932617,570.639238357544
1852,461.27021312713623,569.0251922607422
1853,464.3201208114624,567.9874134063721
1854,467.6042175292969,567.1747255325317
1855,467.6043462753296,567.1750688552856
1856,470.6179904937744,566.331524848938
1857,473.91247272491455,565.6373691558838
1858,476.970534324646,564.6430206298828
1859,480.27184009552,563.3851718902588
1860,483.55945587158203,562.4975538253784
1861,483.5584259033203,562.489013671875
1862,486.75626277923584,562.2009229660034
1863,489.49881076812744,563.1356620788574
1864,491.87971115112305,565.134015083313
1865,493.47418785095215,567.0934867858887
1866,495.5416774749756,568.1783866882324
1867,495.5504322052002,568.1473588943481
1868,498.2473611831665,569.6733856201172
1869,500.40613174438477,571.2781190872192
1870,502.29496479034424,572.4970006942749
1871,503.5896348953247,573.3490419387817
1872,504.9144744873047,574.1779947280884
1873,504.91520404815674,574.1738748550415
1874,505.70454597473145,574.3082427978516
1875,506.3774585723877,573.899302482605
1876,507.3941230773926,573.1677675247192
1877,508.56549739837646,571.3955783843994
1878,509.6367931365967,568.6591672897339
1879,509.63675022125244,568.6591243743896
1880,510.3329658508301,564.4404172897339
1881,510.2354621887207,560.2551412582397
1882,510.02521991729736,555.8993625640869
1883,509.2665195465088,554.6363639831543
1884,508.15930366516113,555.3545951843262
1885,508.158917427063,555.3538227081299
1886,506.0373544692993,555.9486722946167
1887,503.53676319122314,556.5886688232422
1888,501.10320568084717,557.0582914352417
1889,498.36151599884033,557.3308897018433
1890,495.37739753723145,556.7432069778442
1891,495.38456439971924,556.7477989196777
1892,492.6367378234863,556.0581064224243
1893,489.84758377075195,555.9746789932251
1894,486.56413078308105,556.9223785400391
1895,483.1785821914673,558.2707357406616
1896,471.8270015716553,567.8654909133911
1897,471.8248128890991,567.8539896011353
1898,468.1102752685547,568.188042640686
1899,464.340763092041,568.0723857879639
1900,460.7469892501831,567.732367515564
1901,457.37736225128174,568.3951950073242
1902,453.8915205001831,569.167971611023
1903,453.89113426208496,569.1638088226318
1904,450.7436800003052,570.1103067398071
1905,447.7019691467285,570.7822751998901
1906,444.33332920074463,570.652756690979
1907,440.90675354003906,569.6681070327759
1908,437.51747131347656,568.0955171585083
1909,437.51747131347656,568.0955171585083
1910,433.8377809524536,565.3991031646729
1911,429.99621391296387,562.1426439285278
1912,426.2768268585205,558.5499429702759
1913,423.112850189209,555.1000213623047
1914,420.7203197479248,552.5709342956543
1915,420.72362422943115,552.5157451629639
1916,419.32029247283936,551.648211479187
1917,418.83543491363525,551.2763500213623
1918,418.86847972869873,551.653790473938
1919,419.5465850830078,552.6412296295166
1920,420.8374786376953,553.6993503570557
1921,420.83739280700684,553.6992645263672
1922,422.32166290283203,554.9940633773804
1923,424.0655279159546,556.4739990234375
1924,425.83866119384766,557.8439855575562
1925,427.7409267425537,559.4667863845825
1926,429.6137523651123,561.4520931243896
1927,429.6138381958008,561.4525651931763
1928,430.85052967071533,563.6216354370117
1929,432.1349859237671,566.0780668258667
1930,433.463773727417,567.9515790939331
1931,434.58970069885254,568.7603187561035
1932,435.6953716278076,568.8056802749634
1933,435.6952428817749,568.8057661056519
1934,436.6319990158081,568.2273530960083
1935,437.91542530059814,567.67906665802
1936,439.1228485107422,567.5577449798584
1937,440.70440769195557,568.1079626083374
1938,442.4420928955078,568.6692953109741
1939,442.44325160980225,568.6653470993042
1940,444.0803861618042,569.2791223526001
1941,445.6581687927246,569.7644090652466
1942,447.3319101333618,570.2323579788208
1943,448.9825630187988,570.5865383148193
1944,450.4882049560547,570.7137393951416
1945,450.4882049560547,570.7138681411743
1946,452.1352958679199,571.0807943344116
1947,453.749942779541,570.7009935379028
1948,455.42630195617676,570.0561475753784
1949,457.2413206100464,569.3733644485474
1950,459.16779041290283,568.3120679855347
1951,459.1764163970947,568.3264017105103
1952,461.2035655975342,567.7197933197021
1953,462.940092086792,567.5667142868042
1954,464.40547943115234,568.8900947570801
1955,465.50973415374756,570.1708173751831
1956,466.4642572402954,571.0247898101807
1957,466.4794063568115,571.0097694396973
1958,468.41437339782715,572.4610805511475
1959,461.7745113372803,574.6262454986572
1960,463.40126037597656,575.5511999130249
1961,464.20008659362793,576.7495250701904
1962,465.05165576934814,577.4753522872925
1963,465.04560470581055,577.4724769592285
1964,465.66474437713623,577.9946279525757
1965,465.99244594573975,578.1948709487915
1966,466.19032859802246,577.9908514022827
1967,466.4004850387573,576.686954498291
1968,466.6108989715576,574.9370813369751
1969,466.6217565536499,574.9201726913452
1970,466.954607963562,572.88010597229
1971,467.24523067474365,570.6434869766235
1972,467.35934257507324,569.4634866714478
1973,467.2404670715332,569.6730422973633
1974,466.6581058502197,570.3978395462036
1975,466.65904998779297,570.4008865356445
1976,466.1147975921631,571.8702220916748
1977,465.2827548980713,572.8079652786255
1978,463.7335538864136,572.872724533081
1979,462.21529483795166,572.2397661209106
1980,460.73450088500977,571.22962474823
1981,460.73450088500977,571.2300539016724
1982,459.1430711746216,570.6122446060181
1983,457.5025463104248,570.7761812210083
1984,455.60847759246826,571.4031314849854
1985,454.04974937438965,572.1774959564209
1986,451.85269832611084,572.8855562210083
1987,451.8518829345703,572.9080867767334
1988,449.9863529205322,572.772045135498
1989,448.08305740356445,572.8902769088745
1990,446.1122131347656,573.0769157409668
1991,444.2617893218994,573.8665151596069
1992,442.6037549972534,575.2064609527588
1993,442.5973606109619,575.2419948577881
1994,440.9232759475708,576.0990142822266
1995,439.159197807312,576.1067390441895
1996,437.2268486022949,574.9656200408936
1997,435.1917600631714,572.9990243911743
1998,433.1637954711914,569.9918174743652
1999,433.16375255584717,569.9864101409912
2000,431.0517168045044,566.1603355407715
2001,429.3138599395752,562.2126388549805
2002,428.311185836792,559.5451498031616
2003,428.1851005554199,558.9457941055298
2004,429.0162420272827,560.0355863571167
2005,429.042763710022,560.0132274627686
2006,430.43429374694824,562.4501752853394
2007,432.2130489349365,564.7484636306763
2008,433.79576683044434,566.7591762542725
2009,435.8832120895386,569.5755815505981
2010,437.63312816619873,570.0596237182617
2011,437.6211977005005,570.0715970993042
2012,439.54676628112793,570.1681566238403
2013,441.20660305023193,570.5902719497681
2014,442.82734394073486,570.1532649993896
2015,444.45847034454346,570.264630317688
2016,446.54462814331055,570.6797504425049
2017,446.54462814331055,570.6798791885376
2018,448.54658603668213,571.0301113128662
2019,450.3248691558838,571.5978813171387
2020,452.11525440216064,571.9536066055298
2021,453.8491630554199,572.5403881072998
2022,455.5411434173584,572.5792264938354
2023,455.53221702575684,572.5379848480225
2024,456.9655466079712,572.1396017074585
2025,458.37879180908203,570.9568977355957
2026,459.7638416290283,569.0835571289062
2027,460.8283567428589,566.7139863967896
2028,462.1038007736206,564.1849422454834
2029,462.10229873657227,564.1888475418091
2030,463.0646753311157,562.0714902877808
2031,453.5389709472656,562.0172452926636
