[
  {
    "id": "pebbles",
    "file": "rnbo\\media\\90788__kmoon__pebbles_scrape_drag_foot.wav"
  },
  {
    "id": "bubbles",
    "file": "rnbo\\media\\398808__inspectorj__bubbling-large-a.wav"
  },
  {
    "id": "mud",
    "file": "rnbo\\media\\191339__hitrison__stomping-mud-gross.flac"
  }
]